Tidy Work in Tidyverse
…
---
name: tibble_intro

## Tibbles
.pull-left-50[
  <img src="assets_tidyverse/hex-tibble.png" width="160" style="display: block; margin: auto;" />
  
  ```r
  as_tibble(iris)
  ```
  
  ```
  ## # A tibble: 150 x 5
  ##    Sepal.Length Sepal.Width Petal.Length Petal.Width Species
  ##           <dbl>       <dbl>        <dbl>       <dbl> <fct>  
  ##  1          5.1         3.5          1.4         0.2 setosa 
  ##  2          4.9         3            1.4         0.2 setosa 
  ##  3          4.7         3.2          1.3         0.2 setosa 
  ##  4          4.6         3.1          1.5         0.2 setosa 
  ##  5          5           3.6          1.4         0.2 setosa 
  ##  6          5.4         3.9          1.7         0.4 setosa 
  ##  7          4.6         3.4          1.4         0.3 setosa 
  ##  8          5           3.4          1.5         0.2 setosa 
  ##  9          4.4         2.9          1.4         0.2 setosa 
  ## 10          4.9         3.1          1.5         0.1 setosa 
  ## # … with 140 more rows
  ```
…
```r
  tibble(
    x = 1,          # recycling
    y = runif(50), 
    z = x + y^2,
    outcome = rnorm(50)
  )
```

```
## # A tibble: 50 x 4
##        x      y     z  outcome
##    <dbl>  <dbl> <dbl>    <dbl>
##  1     1 0.528   1.28  0.00203
##  2     1 0.626   1.39 -3.18   
##  3     1 0.930   1.86 -1.78   
##  4     1 0.702   1.49 -0.199  
##  5     1 0.0807  1.01  0.129  
##  6     1 0.644   1.41 -2.12   
##  7     1 0.0435  1.00 -1.61   
##  8     1 0.880   1.77  0.451  
##  9     1 0.250   1.06  1.50   
## 10     1 0.0855  1.01  0.568  
## # … with 40 more rows
```
…
## More on Tibbles

* When you print a `tibble`:
  + all columns that fit the screen are shown,
  + first 10 rows are shown,
  + data type for each column is shown.

```r
as_tibble(cars)
```

```
## # A tibble: 50 x 2
##    speed  dist
##    <dbl> <dbl>
##  1     4     2
##  2     4    10
##  3     7     4
##  4     7    22
##  5     8    16
##  6     9    10
##  7    10    18
##  8    10    26
##  9    10    34
## 10    11    17
## # … with 40 more rows
```
…
---
name: readr_problems
## Looking at Problematic Columns

```r
p <- problems(tricky_dataset)
p
```

```
## # A tibble: 1,000 x 5
##      row col   expected      actual   file                                 
##    <int> <chr> <chr>         <chr>    <chr>                                
##  1  1001 y     1/0/T/F/TRUE… 2015-01… '/Library/Frameworks/R.framework/Ver…
##  2  1002 y     1/0/T/F/TRUE… 2018-05… '/Library/Frameworks/R.framework/Ver…
##  3  1003 y     1/0/T/F/TRUE… 2015-09… '/Library/Frameworks/R.framework/Ver…
##  4  1004 y     1/0/T/F/TRUE… 2012-11… '/Library/Frameworks/R.framework/Ver…
##  5  1005 y     1/0/T/F/TRUE… 2020-01… '/Library/Frameworks/R.framework/Ver…
##  6  1006 y     1/0/T/F/TRUE… 2016-04… '/Library/Frameworks/R.framework/Ver…
##  7  1007 y     1/0/T/F/TRUE… 2011-05… '/Library/Frameworks/R.framework/Ver…
##  8  1008 y     1/0/T/F/TRUE… 2020-07… '/Library/Frameworks/R.framework/Ver…
##  9  1009 y     1/0/T/F/TRUE… 2011-04… '/Library/Frameworks/R.framework/Ver…
## 10  1010 y     1/0/T/F/TRUE… 2010-05… '/Library/Frameworks/R.framework/Ver…
## # … with 990 more rows
```
…
---
name: basic_data_transformations
## Basic Data Transformations with `dplyr`

Let us create a tibble:

```r
bijou <- as_tibble(diamonds) %>% head(n = 100)
bijou
```

```
## # A tibble: 100 x 10
##    carat cut       color clarity depth table price     x     y     z
##    <dbl> <ord>     <ord> <ord>   <dbl> <dbl> <int> <dbl> <dbl> <dbl>
##  1 0.23  Ideal     E     SI2      61.5    55   326  3.95  3.98  2.43
##  2 0.21  Premium   E     SI1      59.8    61   326  3.89  3.84  2.31
##  3 0.23  Good      E     VS1      56.9    65   327  4.05  4.07  2.31
##  4 0.290 Premium   I     VS2      62.4    58   334  4.2   4.23  2.63
##  5 0.31  Good      J     SI2      63.3    58   335  4.34  4.35  2.75
##  6 0.24  Very Good J     VVS2     62.8    57   336  3.94  3.96  2.48
##  7 0.24  Very Good I     VVS1     62.3    57   336  3.95  3.98  2.47
##  8 0.26  Very Good H     SI1      61.9    55   337  4.07  4.11  2.53
##  9 0.22  Fair      E     VS2      65.1    61   337  3.87  3.78  2.49
## 10 0.23  Very Good H     VS1      59.4    61   338  4     4.05  2.39
## # … with 90 more rows
```
…
---
name: arrange
## Rearranging Observations using `arrange()`

```r
bijou %>% arrange(cut, carat, desc(price))
```

```
## # A tibble: 100 x 10
##    carat cut   color clarity depth table price     x     y     z
##    <dbl> <ord> <ord> <ord>   <dbl> <dbl> <int> <dbl> <dbl> <dbl>
##  1  0.22 Fair  E     VS2      65.1    61   337  3.87  3.78  2.49
##  2  0.86 Fair  E     SI2      55.1    69  2757  6.45  6.33  3.52
##  3  0.96 Fair  F     SI2      66.3    62  2759  6.27  5.95  4.07
##  4  0.23 Good  F     VS1      58.2    59   402  4.06  4.08  2.37
##  5  0.23 Good  E     VS1      64.1    59   402  3.83  3.85  2.46
##  6  0.23 Good  E     VS1      56.9    65   327  4.05  4.07  2.31
##  7  0.26 Good  E     VVS1     57.9    60   554  4.22  4.25  2.45
##  8  0.26 Good  D     VS2      65.2    56   403  3.99  4.02  2.61
##  9  0.26 Good  D     VS1      58.4    63   403  4.19  4.24  2.46
## 10  0.3  Good  H     SI1      63.7    57   554  4.28  4.26  2.72
## # … with 90 more rows
```
…
